{
  "data": [
    {
      "Domain": "museumofflight.org",
      "password-rules": "minlength: 8; maxlength: 15;",
      "id": "1e25756f-80da-4fde-ac31-93e870adf079",
      "last_modified": 1652712410939
    },
    {
      "Domain": "ae.com",
      "password-rules": "minlength: 8; maxlength: 25; required: lower; required: upper; required: digit;",
      "id": "1b76634d-c4dc-467f-8b1d-458c0753faf1",
      "last_modified": 1650898337595
    },
    {
      "Domain": "app.digio.in",
      "password-rules": "minlength: 8; maxlength: 15;",
      "id": "9199eb80-2ea2-4efc-974a-13646cd9e2bf",
      "last_modified": 1650898337590
    },
    {
      "Domain": "app.parkmobile.io",
      "password-rules": "minlength: 8; maxlength: 25; required: lower; required: upper; required: digit; required: [!@#$%^&];",
      "id": "267bc941-86ee-4558-9d72-3f875ff0ac95",
      "last_modified": 1650898337584
    },
    {
      "Domain": "areariservata.bancaetica.it",
      "password-rules": "minlength: 8; maxlength: 10; required: lower; required: upper; required: digit; required: [!#&*+/=@_];",
      "id": "1316e054-4002-41b3-bb25-c2af275f1b48",
      "last_modified": 1650898337579
    },
    {
      "Domain": "bcassessment.ca",
      "password-rules": "minlength: 8; maxlength: 14;",
      "id": "2b72ecba-f8e4-4cc4-9c2c-01ad7b8eff60",
      "last_modified": 1650898337573
    },
    {
      "Domain": "belkin.com",
      "password-rules": "minlength: 8; required: lower, upper; required: digit; required: [$!@~_,%&];",
      "id": "89e880c3-2742-4802-bd33-ea506d3b7020",
      "last_modified": 1650898337568
    },
    {
      "Domain": "bilibili.com",
      "password-rules": "maxlength: 16;",
      "id": "3867a12f-b3e8-4343-94eb-6ddefba5b1a5",
      "last_modified": 1650898337562
    },
    {
      "Domain": "billerweb.com",
      "password-rules": "minlength: 8; max-consecutive: 2; required: digit; required: upper,lower;",
      "id": "6d89d12e-2ea9-4077-9dbc-c2566ccca370",
      "last_modified": 1650898337557
    },
    {
      "Domain": "bochk.com",
      "password-rules": "minlength: 8; maxlength: 12; max-consecutive: 3; required: lower; required: upper; required: digit; allowed: [#$%&()*+,.:;<=>?@_];",
      "id": "2a133fcd-fa66-473c-a09b-07014d0d3ccd",
      "last_modified": 1650898337551
    },
    {
      "Domain": "collectivehealth.com",
      "password-rules": "minlength: 8; required: lower; required: upper; required: digit;",
      "id": "b86c63d8-60e4-4c8a-965d-56af269f6b76",
      "last_modified": 1650898337546
    },
    {
      "Domain": "dan.org",
      "password-rules": "minlength: 8; maxlength: 25; required: lower; required: upper; required: digit; required: [!@$%^&*];",
      "id": "b7ca591b-c242-4520-a849-ccd74a90076a",
      "last_modified": 1650898337540
    },
    {
      "Domain": "dbs.com.hk",
      "password-rules": "minlength: 8; maxlength: 30; required: lower; required: upper; required: digit;",
      "id": "fe2f51c2-8ccb-4ee4-97cb-73288337f6ab",
      "last_modified": 1650898337535
    },
    {
      "Domain": "equifax.com",
      "password-rules": "minlength: 8; maxlength: 20; required: lower; required: upper; required: digit; required: [!$*+@];",
      "id": "ce20ebcc-b423-45f5-9643-f4651c55a133",
      "last_modified": 1650898337530
    },
    {
      "Domain": "fidelity.com",
      "password-rules": "minlength: 6; maxlength: 20; required: lower; allowed: upper,digit,[!$%'()+,./:;=?@^_|~];",
      "id": "51bcb63b-7da1-4dd5-a024-e395d32e3c36",
      "last_modified": 1650898337524
    },
    {
      "Domain": "flysas.com",
      "password-rules": "minlength: 8; maxlength: 14; required: lower; required: upper; required: digit; required: [-~!@#$%^&_+=`|(){}[:\"'<>,.?]];",
      "id": "c7b74d79-d787-4575-bfb4-92b531f422d9",
      "last_modified": 1650898337519
    },
    {
      "Domain": "gamestop.com",
      "password-rules": "minlength: 8; maxlength: 225; required: lower; required: upper; required: digit; required: [!@#$%];",
      "id": "ef9def1f-a244-4cc1-8937-f42865ce62c7",
      "last_modified": 1650898337513
    },
    {
      "Domain": "hangseng.com",
      "password-rules": "minlength: 8; maxlength: 30; required: lower; required: upper; required: digit;",
      "id": "bb13b29e-8fa0-4d68-b400-e546834a30a7",
      "last_modified": 1650898337508
    },
    {
      "Domain": "hkbea.com",
      "password-rules": "minlength: 8; maxlength: 12; required: lower; required: upper; required: digit;",
      "id": "a771074d-6e15-42aa-811a-731930d173b5",
      "last_modified": 1650898337502
    },
    {
      "Domain": "hkexpress.com",
      "password-rules": "minlength: 8; maxlength: 15; required: lower; required: upper; required: digit; required: special;",
      "id": "94abbd2d-2201-43f1-b3c8-33900f207b4c",
      "last_modified": 1650898337497
    },
    {
      "Domain": "hsbc.com.hk",
      "password-rules": "minlength: 6; maxlength: 30; required: lower; required: upper; required: digit; allowed: ['.@_];",
      "id": "b657a5f0-268c-4acd-85fe-5085bcdb380c",
      "last_modified": 1650898337492
    },
    {
      "Domain": "kfc.ca",
      "password-rules": "minlength: 6; maxlength: 15; required: lower; required: upper; required: digit; required: [!@#$%&?*];",
      "id": "ca2e08a6-cc00-47a4-8517-737552dfedab",
      "last_modified": 1650898337486
    },
    {
      "Domain": "launtel.net.au",
      "password-rules": "minlength: 8; required: digit; required: digit; allowed: lower, upper;",
      "id": "eede7e13-6f0b-408a-bf1d-292130631834",
      "last_modified": 1650898337480
    },
    {
      "Domain": "lg.com",
      "password-rules": "minlength: 8; maxlength: 16; required: lower; required: upper; required: digit; allowed: [-!#$%&'()*+,.:;=?@[^_{|}~]];",
      "id": "fb2b3324-dd2d-4518-a309-af50f685689a",
      "last_modified": 1650898337475
    },
    {
      "Domain": "lloydsbank.co.uk",
      "password-rules": "minlength: 8; maxlength: 15; required: lower; required: digit; allowed: upper;",
      "id": "56265f6f-6348-4900-8abf-07c4ab2e1c72",
      "last_modified": 1650898337470
    },
    {
      "Domain": "loyalty.accor.com",
      "password-rules": "minlength: 8; required: lower; required: upper; required: digit; required: [!#$%&=@];",
      "id": "403e9c7d-1dbc-44f4-a825-81aa4127afca",
      "last_modified": 1650898337464
    },
    {
      "Domain": "lsacsso.b2clogin.com",
      "password-rules": "minlength: 8; maxlength: 16; required: lower; required: upper; required: digit, [-!#$%&*?@^_];",
      "id": "369eb957-3b3f-4377-ac76-52026dfffbfa",
      "last_modified": 1650898337458
    },
    {
      "Domain": "medicare.gov",
      "password-rules": "minlength: 8; maxlength: 16; required: lower; required: upper; required: digit; required: [@!$%^*()];",
      "id": "27a56617-f363-4455-a60c-8582af732012",
      "last_modified": 1650898337453
    },
    {
      "Domain": "mpv.tickets.com",
      "password-rules": "minlength: 8; maxlength: 15; required: lower; required: upper; required: digit;",
      "id": "9deab323-bc0f-4433-bbc3-e4d26dbfa7e0",
      "last_modified": 1650898337448
    },
    {
      "Domain": "my.konami.net",
      "password-rules": "minlength: 8; maxlength: 32; required: lower; required: upper; required: digit;",
      "id": "6a62b70b-6412-4ff4-945a-168dfc38b634",
      "last_modified": 1650898337443
    },
    {
      "Domain": "order.wendys.com",
      "password-rules": "minlength: 6; maxlength: 20; required: lower; required: upper; required: digit; allowed: [!#$%&()*+/=?^_{}];",
      "id": "57882459-1180-4faf-a8dd-c7475bcfeb0f",
      "last_modified": 1650898337437
    },
    {
      "Domain": "preferredhotels.com",
      "password-rules": "minlength: 8; required: lower; required: upper; required: digit; required: [!#$%&()*+@^_];",
      "id": "4290b8b6-dd7c-431b-a4cb-36e661f72423",
      "last_modified": 1650898337432
    },
    {
      "Domain": "premier.ticketek.com.au",
      "password-rules": "minlength: 6; maxlength: 16;",
      "id": "26b1c942-2d06-496b-984b-65044ad2f1ab",
      "last_modified": 1650898337427
    },
    {
      "Domain": "premierinn.com",
      "password-rules": "minlength: 8; required: upper; required: digit; allowed: lower;",
      "id": "f6663626-8861-4bfc-a704-5ff1e23e9e22",
      "last_modified": 1650898337421
    },
    {
      "Domain": "prestocard.ca",
      "password-rules": "minlength: 8; required: lower; required: upper; required: digit,[!\"#$%&'()*+,<>?@];",
      "id": "ed580dc6-16af-4ec5-8ae2-b40fe99f0260",
      "last_modified": 1650898337416
    },
    {
      "Domain": "questdiagnostics.com",
      "password-rules": "minlength: 8; maxlength: 30; required: upper, lower; required: digit, [!#$%&()*+<>?@^_~];",
      "id": "a331ccb9-a2b8-44dd-bc35-0878eb51b4fe",
      "last_modified": 1650898337411
    },
    {
      "Domain": "renaud-bray.com",
      "password-rules": "minlength: 8; maxlength: 38; allowed: upper,lower,digit;",
      "id": "210a8aea-1089-487d-bcaa-3c937374f650",
      "last_modified": 1650898337405
    },
    {
      "Domain": "rogers.com",
      "password-rules": "minlength: 8; required: lower, upper; required: digit; required: [!@#$];",
      "id": "a13b20d6-0b68-4a05-866a-e8a14adee208",
      "last_modified": 1650898337400
    },
    {
      "Domain": "ruc.dk",
      "password-rules": "minlength: 6; maxlength: 8; required: lower, upper; required: [-!#%&(){}*+;%/<=>?_];",
      "id": "85d4c3e2-7f8c-480d-a20e-c55aee12a2e7",
      "last_modified": 1650898337394
    },
    {
      "Domain": "runescape.com",
      "password-rules": "minlength: 5; maxlength: 20; required: lower; required: upper; required: digit;",
      "id": "e14ecd5a-951f-4c27-bf45-0ee3fb830032",
      "last_modified": 1650898337389
    },
    {
      "Domain": "salslimo.com",
      "password-rules": "minlength: 8; maxlength: 50; required: upper; required: lower; required: digit; required: [!@#$&*];",
      "id": "afa90771-c472-48cc-96d3-21c770bb958c",
      "last_modified": 1650898337384
    },
    {
      "Domain": "secure.snnow.ca",
      "password-rules": "minlength: 7; maxlength: 16; required: digit; allowed: lower, upper;",
      "id": "f6a3e835-190e-4043-a070-943d821f708e",
      "last_modified": 1650898337378
    },
    {
      "Domain": "tix.soundrink.com",
      "password-rules": "minlength: 6; maxlength: 16;",
      "id": "0cb09a67-566e-492c-a4d7-af473e964472",
      "last_modified": 1650898337373
    },
    {
      "Domain": "training.confluent.io",
      "password-rules": "minlength: 6; maxlength: 16; required: lower; required: upper; required: digit; allowed: [!#$%*@^_~];",
      "id": "d00c2ee9-6f05-495c-9833-bae526019ddc",
      "last_modified": 1650898337368
    },
    {
      "Domain": "usps.com",
      "password-rules": "minlength: 8; maxlength: 50; max-consecutive: 2; required: lower; required: upper; required: digit; allowed: [-!\"#&'()+,./?@];",
      "id": "caacf36d-df98-43ab-8d5c-d7d40d79d696",
      "last_modified": 1650898337362
    },
    {
      "Domain": "visabenefits-auth.axa-assistance.us",
      "password-rules": "minlength: 8; required: lower; required: upper; required: digit; required: [!\"#$%&()*,.:<>?@^{|}];",
      "id": "3afe232d-ff3d-4e3d-b6bd-da947dac7884",
      "last_modified": 1650898337357
    },
    {
      "Domain": "wegmans.com",
      "password-rules": "minlength: 8; required: digit; required: upper,lower; required: [!#$%&*+=?@^];",
      "id": "d7036bd9-5301-43a1-b427-25a876ff4c07",
      "last_modified": 1650898337352
    },
    {
      "Domain": "xvoucher.com",
      "password-rules": "minlength: 11; required: upper; required: digit; required: [!@#$%&_];",
      "id": "85cc3546-8a5c-4400-bd01-c0386897a442",
      "last_modified": 1650898337346
    },
    {
      "Domain": "zara.com",
      "password-rules": "minlength: 8; required: lower; required: upper; required: digit;",
      "id": "4496846f-b282-4965-97f8-97c2b814881a",
      "last_modified": 1650898337341
    },
    {
      "Domain": "americanexpress.com",
      "password-rules": "minlength: 8; maxlength: 20; max-consecutive: 4; required: lower, upper; required: digit; allowed: [%&_?#=];",
      "id": "986919ff-d801-45f6-ab75-af40e0c9e0ad",
      "last_modified": 1650898337335
    },
    {
      "Domain": "163.com",
      "password-rules": "minlength: 6; maxlength: 16;",
      "id": "df352506-8729-494d-bfad-525d90380416",
      "last_modified": 1624479577563
    },
    {
      "Domain": "1800flowers.com",
      "password-rules": "minlength: 6; required: lower, upper; required: digit;",
      "id": "aeec29cc-4e54-4ef8-85d7-b3c0dab03617",
      "last_modified": 1624479577559
    },
    {
      "Domain": "access.service.gov.uk",
      "password-rules": "minlength: 10; required: lower; required: upper; required: digit; required: special;",
      "id": "9c47a7ff-c8f0-46e8-b126-2c3ebe217722",
      "last_modified": 1624479577554
    },
    {
      "Domain": "admiral.com",
      "password-rules": "minlength: 8; required: digit; required: [- !\"#$&'()*+,.:;<=>?@[^_`{|}~]]; allowed: lower, upper;",
      "id": "b20d499f-3ee7-4ec6-9e2e-306a277cff83",
      "last_modified": 1624479577550
    },
    {
      "Domain": "aetna.com",
      "password-rules": "minlength: 8; maxlength: 20; max-consecutive: 2; required: upper; required: digit; allowed: lower, [-_&#@];",
      "id": "70f3cf89-ed8d-4f44-84a5-9d1fda34e587",
      "last_modified": 1624479577545
    },
    {
      "Domain": "airasia.com",
      "password-rules": "minlength: 8; maxlength: 15; required: lower; required: upper; required: digit;",
      "id": "f83b0077-a3f1-4024-9966-4286edf46600",
      "last_modified": 1624479577540
    },
    {
      "Domain": "ajisushionline.com",
      "password-rules": "minlength: 8; required: lower; required: upper; required: digit; allowed: [ !#$%&*?@];",
      "id": "05d720bf-9c13-4a82-9a53-de12188d1b26",
      "last_modified": 1624479577536
    },
    {
      "Domain": "aliexpress.com",
      "password-rules": "minlength: 6; maxlength: 20; allowed: lower, upper, digit;",
      "id": "467a4753-9e20-4e4a-a918-140cffb7edab",
      "last_modified": 1624479577531
    },
    {
      "Domain": "alliantcreditunion.com",
      "password-rules": "minlength: 8; maxlength: 20; max-consecutive: 3; required: lower, upper; required: digit; allowed: [!#$*];",
      "id": "d1a38279-7778-4113-96fe-869f526e06ba",
      "last_modified": 1624479577527
    },
    {
      "Domain": "allianz.com.br",
      "password-rules": "minlength: 4; maxlength: 4;",
      "id": "46f95801-6c08-404b-99f6-ac36b347e45b",
      "last_modified": 1624479577522
    },
    {
      "Domain": "anatel.gov.br",
      "password-rules": "minlength: 6; maxlength: 15; allowed: lower, upper, digit;",
      "id": "d3c8fbd7-3b79-4132-93f1-7d0d97f99a3e",
      "last_modified": 1624479577513
    },
    {
      "Domain": "ancestry.com",
      "password-rules": "minlength: 8; required: lower; required: upper; required: digit; required: [-!\"#$%&'()*+,./:;<=>?@[^_`{|}~]];",
      "id": "23a52c2b-d500-443d-bb20-fa878152073a",
      "last_modified": 1624479577508
    },
    {
      "Domain": "angieslist.com",
      "password-rules": "minlength: 6; maxlength: 15;",
      "id": "00324bb2-6d86-4c9c-bf9d-d3f48881ae18",
      "last_modified": 1624479577504
    },
    {
      "Domain": "anthem.com",
      "password-rules": "minlength: 8; maxlength: 20; max-consecutive: 3; required: lower, upper; required: digit; allowed: [!$*?@|];",
      "id": "8cb611dc-dc73-43de-b7e5-77ad34eaaced",
      "last_modified": 1624479577499
    },
    {
      "Domain": "apple.com",
      "password-rules": "minlength: 8; maxlength: 63; required: lower; required: upper; required: digit; allowed: ascii-printable;",
      "id": "26688582-ba4c-4137-9cd7-580cb58e7bc8",
      "last_modified": 1624479577494
    },
    {
      "Domain": "artscyclery.com",
      "password-rules": "minlength: 6; maxlength: 19;",
      "id": "b2f3bf26-05d3-4035-b3b9-40b0c7bbf560",
      "last_modified": 1624479577490
    },
    {
      "Domain": "astonmartinf1.com",
      "password-rules": "minlength: 8; maxlength: 16; required: lower; required: upper; required: digit; allowed: special;",
      "id": "808d3f9e-8c76-49e6-8aa9-e91cb4d13834",
      "last_modified": 1624479577485
    },
    {
      "Domain": "autify.com",
      "password-rules": "minlength: 8; required: lower; required: upper; required: digit; required: [!\"#$%&'()*+,./:;<=>?@[^_`{|}~]];",
      "id": "8655f1b9-4322-4c64-bc6f-8cf7c19f46ce",
      "last_modified": 1624479577481
    },
    {
      "Domain": "axa.de",
      "password-rules": "minlength: 8; maxlength: 65; required: lower; required: upper; required: digit; allowed: [-!\"§$%&/()=?;:_+*'#];",
      "id": "f616c182-ee3d-4fc0-8518-54ebae43c31b",
      "last_modified": 1624479577476
    },
    {
      "Domain": "baidu.com",
      "password-rules": "minlength: 6; maxlength: 14;",
      "id": "66b8fe2d-6da7-4741-8657-a91ee05b9c8f",
      "last_modified": 1624479577472
    },
    {
      "Domain": "bancochile.cl",
      "password-rules": "minlength: 8; maxlength: 8; required: lower; required: upper; required: digit;",
      "id": "ac6e2d7c-de54-4f75-ac0f-87371bd9d1b0",
      "last_modified": 1624479577467
    },
    {
      "Domain": "bankofamerica.com",
      "password-rules": "minlength: 8; maxlength: 20; max-consecutive: 3; required: lower; required: upper; required: digit; allowed: [-@#*()+={}/?~;,._];",
      "id": "049c723a-f358-4b2f-bacf-6a835d8adbff",
      "last_modified": 1624479577463
    },
    {
      "Domain": "battle.net",
      "password-rules": "minlength: 8; maxlength: 16; required: lower, upper; allowed: digit, special;",
      "id": "97efec40-121d-4b29-b25e-f98c2e12fdad",
      "last_modified": 1624479577458
    },
    {
      "Domain": "benefitslogin.discoverybenefits.com",
      "password-rules": "minlength: 10; required: upper; required: digit; required: [!#$%&*?@]; allowed: lower;",
      "id": "c553aacf-c4a7-48f7-aae6-6481875ecea1",
      "last_modified": 1624479577453
    },
    {
      "Domain": "benjerry.com",
      "password-rules": "required: upper; required: upper; required: digit; required: digit; required: special; required: special; allowed: lower;",
      "id": "c09ed551-7333-4d88-91ae-89b92f165b54",
      "last_modified": 1624479577449
    },
    {
      "Domain": "bestbuy.com",
      "password-rules": "minlength: 20; required: lower; required: upper; required: digit; required: special;",
      "id": "6f281737-361f-4e44-ad06-c659a71c2c3a",
      "last_modified": 1624479577444
    },
    {
      "Domain": "bhphotovideo.com",
      "password-rules": "maxlength: 15;",
      "id": "dc5e25f6-f093-4164-bfd1-f44f45df22c7",
      "last_modified": 1624479577440
    },
    {
      "Domain": "biovea.com",
      "password-rules": "maxlength: 19;",
      "id": "b44f6ee8-8a69-41db-b779-b401c2dfc5de",
      "last_modified": 1624479577435
    },
    {
      "Domain": "bitly.com",
      "password-rules": "minlength: 6; required: lower; required: upper; required: digit; required: [`!@#$%^&*()+~{}'\";:<>?]];",
      "id": "effc177c-1d29-483d-9916-3372eadfa381",
      "last_modified": 1624479577431
    },
    {
      "Domain": "bloomingdales.com",
      "password-rules": "minlength: 7; maxlength: 16; required: lower, upper; required: digit; required: [`!@#$%^&*()+~{}'\";:<>?]];",
      "id": "f2720cdc-a347-4d1c-bb88-48291993deb3",
      "last_modified": 1624479577426
    },
    {
      "Domain": "bluesguitarunleashed.com",
      "password-rules": "allowed: lower, upper, digit, [!$#@];",
      "id": "e1f99050-bd82-4345-82ce-86fcd4af983f",
      "last_modified": 1624479577422
    },
    {
      "Domain": "box.com",
      "password-rules": "minlength: 6; maxlength: 20; required: lower; required: upper; required: digit; required: digit;",
      "id": "94ac58b8-2861-4bb0-b4cb-5c9f19273dc5",
      "last_modified": 1624479577417
    },
    {
      "Domain": "brighthorizons.com",
      "password-rules": "minlength: 8; maxlength: 16;",
      "id": "8f7d632d-3c58-4fd0-b6f5-a9110adced33",
      "last_modified": 1624479577413
    },
    {
      "Domain": "callofduty.com",
      "password-rules": "minlength: 8; maxlength: 20; max-consecutive: 2; required: lower, upper; required: digit;",
      "id": "64f6f30c-7b6c-4769-a339-ca36526aa8dc",
      "last_modified": 1624479577408
    },
    {
      "Domain": "capitalone.com",
      "password-rules": "minlength: 8; maxlength: 32; required: lower, upper; required: digit; allowed: [-_./\\@$*&!#];",
      "id": "f18435dc-aff8-4bfa-ad85-f4f996e151fc",
      "last_modified": 1624479577404
    },
    {
      "Domain": "cardbenefitservices.com",
      "password-rules": "minlength: 7; maxlength: 100; required: lower, upper; required: digit;",
      "id": "4b6e5a1d-b1a6-4b39-bf8f-e61b41132aac",
      "last_modified": 1624479577400
    },
    {
      "Domain": "cb2.com",
      "password-rules": "minlength: 7; maxlength: 18; required: lower, upper; required: digit;",
      "id": "77c2554b-2f3b-4bbb-a97a-2ea4357b1f08",
      "last_modified": 1624479577395
    },
    {
      "Domain": "cecredentialtrust.com",
      "password-rules": "minlength: 12; required: lower; required: upper; required: digit; required: [!#$%&*@^];",
      "id": "a656eece-935b-439a-b4b2-99660dd6155e",
      "last_modified": 1624479577391
    },
    {
      "Domain": "chase.com",
      "password-rules": "minlength: 8; maxlength: 32; max-consecutive: 2; required: lower, upper; required: digit; required: [!#$%+/=@~];",
      "id": "8d8c892d-d04f-43f1-abd0-3d58f69e8d3e",
      "last_modified": 1624479577386
    },
    {
      "Domain": "cigna.co.uk",
      "password-rules": "minlength: 8; maxlength: 12; required: lower; required: upper; required: digit;",
      "id": "65bddd06-cb14-4a32-95af-c9beb56e5f6e",
      "last_modified": 1624479577382
    },
    {
      "Domain": "cigna.com",
      "password-rules": "minlength: 8; maxlength: 12; required: upper; required: digit; required: [_!.&@]; allowed: lower;",
      "id": "2bfd4194-def3-4a86-91d8-cc1a7c850e7e",
      "last_modified": 1624479577377
    },
    {
      "Domain": "citi.com",
      "password-rules": "minlength: 6; maxlength: 50; max-consecutive: 2; required: lower, upper; required: digit; allowed: [_!@$]",
      "id": "dee9933c-b444-4bff-a121-455bdcca14e6",
      "last_modified": 1624479577373
    },
    {
      "Domain": "claimlookup.com",
      "password-rules": "minlength: 8; maxlength: 16; required: lower; required: upper; required: digit; required: [@#$%^&+=!];",
      "id": "5b51513d-1b22-4c3e-9569-8b084980c141",
      "last_modified": 1624479577368
    },
    {
      "Domain": "claro.com.br",
      "password-rules": "minlength: 8; required: lower; allowed: upper, digit, [-!@#$%&*_+=<>];",
      "id": "3afe982a-afe3-426c-bb9e-d84befe0bf86",
      "last_modified": 1624479577364
    },
    {
      "Domain": "clien.net",
      "password-rules": "minlength: 5; required: lower, upper; required: digit;",
      "id": "15e73766-3e94-4d53-90af-766947dac02b",
      "last_modified": 1624479577360
    },
    {
      "Domain": "comcastpaymentcenter.com",
      "password-rules": "minlength: 8; maxlength: 20; max-consecutive: 2;required: lower, upper; required: digit;",
      "id": "1fcc6a32-1cb3-48ec-bfa5-a81dba1ba86d",
      "last_modified": 1624479577355
    },
    {
      "Domain": "comed.com",
      "password-rules": "minlength: 8; maxlength: 16; required: lower; required: upper; required: digit; allowed: [-~!@#$%^&*_+=`|(){}[:;\"'<>,.?/\\]];",
      "id": "ddf996fa-5a5f-4f11-a985-3c83039e2075",
      "last_modified": 1624479577351
    },
    {
      "Domain": "commerzbank.de",
      "password-rules": "minlength: 5; maxlength: 8; required: lower, upper; required: digit;",
      "id": "6f56efe9-eb37-4c0a-ba57-b5071755b472",
      "last_modified": 1624479577346
    },
    {
      "Domain": "consorsbank.de",
      "password-rules": "minlength: 5; maxlength: 5; required: lower, upper, digit;",
      "id": "3e3f598e-2109-4bca-b7ce-247b4de42b4a",
      "last_modified": 1624479577342
    },
    {
      "Domain": "consorsfinanz.de",
      "password-rules": "minlength: 6; maxlength: 15; allowed: lower, upper, digit, [-.];",
      "id": "49f6901f-0401-4b79-ad66-c732d68b1b5e",
      "last_modified": 1624479577336
    },
    {
      "Domain": "costco.com",
      "password-rules": "minlength: 8; maxlength: 20; required: lower, upper; allowed: digit, [-!#$%&'()*+/:;=?@[^_`{|}~]];",
      "id": "bb4bc324-6d45-467c-b9d6-94626877a09d",
      "last_modified": 1624479577331
    },
    {
      "Domain": "coursera.com",
      "password-rules": "minlength: 8; maxlength: 72;",
      "id": "8f0ccfd9-c3fb-428b-9f5b-d4ca35b2f675",
      "last_modified": 1624479577327
    },
    {
      "Domain": "cox.com",
      "password-rules": "minlength: 8; maxlength: 24; required: digit; required: upper,lower; allowed: [!#$%()*@^];",
      "id": "a7242ae7-815e-46b6-98ab-d3bd298b4e7f",
      "last_modified": 1624479577322
    },
    {
      "Domain": "crateandbarrel.com",
      "password-rules": "minlength: 9; maxlength: 64; required: lower; required: upper; required: digit; required: [!\"#$%&()*,.:<>?@^_{|}];",
      "id": "eb446a5d-3e3f-4f9b-807c-5739f8e610e2",
      "last_modified": 1624479577318
    },
    {
      "Domain": "cvs.com",
      "password-rules": "minlength: 8; maxlength: 25; required: lower, upper; required: digit; allowed: [!@#$%^&*()];",
      "id": "3873c5fb-2500-40e6-9d3a-cda206e40208",
      "last_modified": 1624479577314
    },
    {
      "Domain": "dailymail.co.uk",
      "password-rules": "minlength: 5; maxlength: 15;",
      "id": "e53ecd8b-4469-4fc2-bc2d-d756e030b248",
      "last_modified": 1624479577309
    },
    {
      "Domain": "danawa.com",
      "password-rules": "minlength: 8; maxlength: 21; required: lower, upper; required: digit; required: [!@$%^&*];",
      "id": "cb88fc85-9057-4d0b-88ae-506fbe1b776e",
      "last_modified": 1624479577305
    },
    {
      "Domain": "darty.com",
      "password-rules": "minlength: 8; required: lower; required: upper; required: digit;",
      "id": "49675eca-fe96-4900-9651-88a2943e5589",
      "last_modified": 1624479577300
    },
    {
      "Domain": "decluttr.com",
      "password-rules": "minlength: 8; maxlength: 45; required: lower; required: upper; required: digit;",
      "id": "de2194d5-6a3b-49ab-a5b9-07c586e7934c",
      "last_modified": 1624479577296
    },
    {
      "Domain": "delta.com",
      "password-rules": "minlength: 8; maxlength: 20; required: lower; required: upper; required: digit;",
      "id": "b3121427-364d-4764-91b7-3a61d9fbd65e",
      "last_modified": 1624479577292
    },
    {
      "Domain": "deutsche-bank.de",
      "password-rules": "minlength: 5; maxlength: 5; required: lower, upper, digit;",
      "id": "6e343fa3-e8d4-45fd-8e94-70e3c0e96970",
      "last_modified": 1624479577287
    },
    {
      "Domain": "devstore.cn",
      "password-rules": "minlength: 6; maxlength: 12;",
      "id": "77c95723-a325-4dd3-8f4b-ab670c4dba0e",
      "last_modified": 1624479577282
    },
    {
      "Domain": "dickssportinggoods.com",
      "password-rules": "minlength: 8; required: lower; required: upper; required: digit; required: [!#$%&*?@^];",
      "id": "740d7562-6f36-4481-a471-3d1939dd83a4",
      "last_modified": 1624479577278
    },
    {
      "Domain": "dkb.de",
      "password-rules": "minlength: 8; maxlength: 38; required: lower, upper; required: digit; allowed: [-äüöÄÜÖß!$%&/()=?+#,.:];",
      "id": "d7250322-8ef5-474f-a5e0-defbe8542543",
      "last_modified": 1624479577274
    },
    {
      "Domain": "dmm.com",
      "password-rules": "minlength: 4; maxlength: 16; required: lower; required: upper; required: digit;",
      "id": "b83f2b23-6349-4ddc-a6ce-7add0051910d",
      "last_modified": 1624479577269
    },
    {
      "Domain": "dowjones.com",
      "password-rules": "maxlength: 15;",
      "id": "2a635fd0-1a69-40e7-90dd-ed0ec396b384",
      "last_modified": 1624479577265
    },
    {
      "Domain": "ea.com",
      "password-rules": "minlength: 8; maxlength: 16; required: lower; required: upper; required: digit; allowed: special;",
      "id": "925e748f-9880-4af9-b5a1-fb28e5c1c7e7",
      "last_modified": 1624479577260
    },
    {
      "Domain": "easycoop.com",
      "password-rules": "minlength: 8; required: upper; required: special; allowed: lower, digit;",
      "id": "8a5e5362-d9dd-41ff-b2ce-3e0a684c6dfb",
      "last_modified": 1624479577256
    },
    {
      "Domain": "easyjet.com",
      "password-rules": "minlength: 6; maxlength: 20; required: lower; required: upper; required: digit; required: [-];",
      "id": "f73a2516-3fd1-4c24-8dc0-d33c11add1c0",
      "last_modified": 1624479577252
    },
    {
      "Domain": "ebrap.org",
      "password-rules": "minlength: 15; required: lower; required: lower; required: upper; required: upper; required: digit; required: digit; required: [-!@#$%^&*()_+|~=`{}[:\";'?,./.]]; required: [-!@#$%^&*()_+|~=`{}[:\";'?,./.]];",
      "id": "812351fd-93ee-4f33-8c40-e17084b51130",
      "last_modified": 1624479577247
    },
    {
      "Domain": "ecompanystore.com",
      "password-rules": "minlength: 8; maxlength: 16; max-consecutive: 2; required: lower; required: upper; required: digit; required: [#$%*+.=@^_];",
      "id": "5524acd6-726c-43a0-b956-6eee0753c3f7",
      "last_modified": 1624479577243
    },
    {
      "Domain": "eddservices.edd.ca.gov",
      "password-rules": "minlength: 8; maxlength: 12; required: lower; required: upper; required: digit; required: [!@#$%^&*()];",
      "id": "d45dd0b1-6142-4b74-93bc-b13b4d077c56",
      "last_modified": 1624479577238
    },
    {
      "Domain": "empower-retirement.com",
      "password-rules": "minlength: 8; maxlength: 16;",
      "id": "3f5e9f47-1c57-40b1-a977-727bd10f800f",
      "last_modified": 1624479577234
    },
    {
      "Domain": "epicgames.com",
      "password-rules": "minlength: 7; required: lower; required: upper; required: digit; required: [-!\"#$%&'()*+,./:;<=>?@[^_`{|}~]];",
      "id": "962aabf0-a55c-4748-bc6a-482eda2e671f",
      "last_modified": 1624479577229
    },
    {
      "Domain": "epicmix.com",
      "password-rules": "minlength: 8; maxlength: 16;",
      "id": "af1a16c7-fca9-4989-84c3-7c9145df2dd1",
      "last_modified": 1624479577225
    },
    {
      "Domain": "essportal.excelityglobal.com",
      "password-rules": "minlength: 6; maxlength: 8; allowed: lower, upper, digit;",
      "id": "2ac13285-4ec2-499e-8d36-3e25260471fa",
      "last_modified": 1624479577221
    },
    {
      "Domain": "ettoday.net",
      "password-rules": "minlength: 6; maxlength: 12;",
      "id": "7eff7845-95a7-4a75-9ebd-3cca066bbef4",
      "last_modified": 1624479577216
    },
    {
      "Domain": "examservice.com.tw",
      "password-rules": "minlength: 6; maxlength: 8;",
      "id": "8f84886c-c6f5-4ef2-8ef1-d859a12fe2c4",
      "last_modified": 1624479577212
    },
    {
      "Domain": "expertflyer.com",
      "password-rules": "minlength: 5; maxlength: 16; required: lower, upper; required: digit;",
      "id": "649bf5c6-30f3-4f88-9950-83bb4437177b",
      "last_modified": 1624479577207
    },
    {
      "Domain": "extraspace.com",
      "password-rules": "minlength: 8; maxlength: 20; allowed: lower; required: upper, digit, [!#$%&*?@];",
      "id": "0c489e43-10d4-4189-a34d-19f24a943bea",
      "last_modified": 1624479577202
    },
    {
      "Domain": "ezpassva.com",
      "password-rules": "minlength: 8; maxlength: 16; required: lower; required: upper; required: digit; required: special;",
      "id": "109d1bd6-2480-4e36-919b-54d89dc1f302",
      "last_modified": 1624479577197
    },
    {
      "Domain": "fc2.com",
      "password-rules": "minlength: 8; maxlength: 16;",
      "id": "51c755bd-9a6e-47d3-b573-007f9c31b89d",
      "last_modified": 1624479577192
    },
    {
      "Domain": "fedex.com",
      "password-rules": "minlength: 8; max-consecutive: 3; required: lower; required: upper; required: digit; allowed: [-!@#$%^&*_+=`|(){}[:;,.?]];",
      "id": "b3b7d81a-a658-4cbd-8119-2e5e3d31f080",
      "last_modified": 1624479577187
    },
    {
      "Domain": "fnac.com",
      "password-rules": "minlength: 8; required: lower; required: upper; required: digit;",
      "id": "967dfded-a339-4f7d-82d6-8bd18990a200",
      "last_modified": 1624479577182
    },
    {
      "Domain": "fuelrewards.com",
      "password-rules": "minlength: 8; maxlength: 16; allowed: upper,lower,digit,[!#$%@];",
      "id": "7e44d18c-7aa9-479d-b99b-9ddf848abb94",
      "last_modified": 1624479577177
    },
    {
      "Domain": "getflywheel.com",
      "password-rules": "minlength: 7; maxlength: 72;",
      "id": "6d8af47c-366d-4c75-b872-fcc4063add5a",
      "last_modified": 1624479577172
    },
    {
      "Domain": "girlscouts.org",
      "password-rules": "minlength: 8; maxlength: 16; required: lower; required: upper; required: digit; allowed: [$#!];",
      "id": "7168f0ef-9376-4603-9e04-6d5a27413adf",
      "last_modified": 1624479577167
    },
    {
      "Domain": "github.com",
      "password-rules": "minlength: 8; required: lower, digit; allowed: unicode;",
      "id": "6a8b1218-29b4-437e-9a36-ffc8a87b02be",
      "last_modified": 1624479577162
    },
    {
      "Domain": "gmx.net",
      "password-rules": "minlength: 8; maxlength: 40; allowed: lower, upper, digit, [-<=>~!|()@#{}$%,.?^'&*_+`:;\"[]];",
      "id": "3f1c7a5f-7c8f-49ff-bf9e-450f1e4ab9fc",
      "last_modified": 1624479577157
    },
    {
      "Domain": "google.com",
      "password-rules": "minlength: 8; allowed: lower, upper, digit, [-!\"#$%&'()*+,./:;<=>?@[^_{|}~]];",
      "id": "bccf75fa-f262-41d4-895c-5dcfed9bbb35",
      "last_modified": 1624479577152
    },
    {
      "Domain": "guardiananytime.com",
      "password-rules": "minlength: 8; maxlength: 50; max-consecutive: 2; required: lower; required: upper; required: digit, [-~!@#$%^&*_+=`|(){}[:;,.?]];",
      "id": "9fadb5ca-c324-4000-b630-27b0c3a54e2c",
      "last_modified": 1624479577143
    },
    {
      "Domain": "gwl.greatwestlife.com",
      "password-rules": "minlength: 8; required: lower; required: upper; required: digit; required: [-!#$%_=+<>];",
      "id": "ce187851-d5a5-49f6-ae80-46cdbea9571b",
      "last_modified": 1624479577138
    },
    {
      "Domain": "hawaiianairlines.com",
      "password-rules": "maxlength: 16;",
      "id": "3cdfee63-22ac-4785-a073-98ec59db2e40",
      "last_modified": 1624479577133
    },
    {
      "Domain": "hertz.com",
      "password-rules": "minlength: 8; maxlength: 30; max-consecutive: 3; required: lower; required: upper; required: digit; required: [#$%^&!@];",
      "id": "e804c8d8-8d33-463a-b228-c2fbdcad663d",
      "last_modified": 1624479577129
    },
    {
      "Domain": "hetzner.com",
      "password-rules": "minlength: 8; required: lower; required: upper; required: digit, special;",
      "id": "a27316a5-29c1-468f-b046-655637fe7fc6",
      "last_modified": 1624479577124
    },
    {
      "Domain": "hilton.com",
      "password-rules": "minlength: 8; maxlength: 32; required: lower; required: upper; required: digit;",
      "id": "3dd64887-7a1c-42bd-b636-f825d155f9fc",
      "last_modified": 1624479577120
    },
    {
      "Domain": "hotels.com",
      "password-rules": "minlength: 6; maxlength: 20; required: digit; allowed: lower, upper, [@$!#()&^*%];",
      "id": "5205a318-095f-4a19-8f68-0f1b9c8b4133",
      "last_modified": 1624479577115
    },
    {
      "Domain": "hotwire.com",
      "password-rules": "minlength: 6; maxlength: 30; allowed: lower, upper, digit, [-~!@#$%^&*_+=`|(){}[:;\"'<>,.?]];",
      "id": "8488aaeb-2cf3-4596-a0b2-93d1017ab2c8",
      "last_modified": 1624479577111
    },
    {
      "Domain": "hrblock.com",
      "password-rules": "minlength: 8; required: lower; required: upper; required: digit; required: [$#%!];",
      "id": "d9fbf6eb-1d43-4e98-b6d5-643e9f92cc61",
      "last_modified": 1624479577107
    },
    {
      "Domain": "hsbc.com.my",
      "password-rules": "minlength: 8; maxlength: 30; required: lower, upper; required: digit; allowed: [-!$*.=?@_'];",
      "id": "b49e95b0-7557-4a97-ad8d-1693e903a404",
      "last_modified": 1624479577102
    },
    {
      "Domain": "hypovereinsbank.de",
      "password-rules": "minlength: 6; maxlength: 10; required: lower, upper, digit; allowed: [!\"#$%&()*+:;<=>?@[{}~]];",
      "id": "fb5e1084-9f2c-4655-befe-861ddf95b5d6",
      "last_modified": 1624479577098
    },
    {
      "Domain": "hyresbostader.se",
      "password-rules": "minlength: 6; maxlength: 20; required: lower, upper; required: digit;",
      "id": "02d748f7-8453-4888-9f84-b59fcb530a24",
      "last_modified": 1624479577094
    },
    {
      "Domain": "id.sonyentertainmentnetwork.com",
      "password-rules": "minlength: 8; maxlength: 30; required: lower, upper; required: digit; allowed: [-!@#^&*=+;:];",
      "id": "5fe63697-cd12-498d-ab86-fadb9d22f9e0",
      "last_modified": 1624479577090
    },
    {
      "Domain": "identitytheft.gov",
      "password-rules": "allowed: lower, upper, digit, [!#%&*@^];",
      "id": "16c76a91-d8b6-4bd8-a6a2-4241b28372e6",
      "last_modified": 1624479577085
    },
    {
      "Domain": "idestination.info",
      "password-rules": "maxlength: 15;",
      "id": "aa7de954-25a9-42f5-9d27-a243b6343c35",
      "last_modified": 1624479577081
    },
    {
      "Domain": "impots.gouv.fr",
      "password-rules": "minlength: 12; maxlength: 128; required: lower; required: digit; allowed: [-!#$%&*+/=?^_'.{|}];",
      "id": "49ed429d-8c9a-455f-8796-0ffa07d7c1d3",
      "last_modified": 1624479577077
    },
    {
      "Domain": "indochino.com",
      "password-rules": "minlength: 6; maxlength: 15; required: upper; required: digit; allowed: lower, special;",
      "id": "b4e0c039-c1ad-4cd1-a826-b96fcfe184d7",
      "last_modified": 1624479577072
    },
    {
      "Domain": "internationalsos.com",
      "password-rules": "required: lower; required: upper; required: digit; required: [@#$%^&+=_];",
      "id": "b43e1dc8-2116-4e32-9560-de2060cd688a",
      "last_modified": 1624479577068
    },
    {
      "Domain": "irctc.co.in",
      "password-rules": "minlength: 8; maxlength: 15; required: lower; required: upper; required: digit; required: [!@#$%^&*()+];",
      "id": "77ee1d78-ce1c-4baa-af93-477c7a9c4d49",
      "last_modified": 1624479577064
    },
    {
      "Domain": "irs.gov",
      "password-rules": "minlength: 8; maxlength: 32; required: lower; required: upper; required: digit; required: [!#$%&*@];",
      "id": "eae8fc2a-7aaa-4487-b1cf-0f1f954fb0b8",
      "last_modified": 1624479577060
    },
    {
      "Domain": "jal.co.jp",
      "password-rules": "minlength: 8; maxlength: 16;",
      "id": "e2df8903-d81e-43ce-a260-d7cab2b45928",
      "last_modified": 1624479577055
    },
    {
      "Domain": "japanpost.jp",
      "password-rules": "minlength: 8; maxlength: 16; required: digit; required: upper,lower;",
      "id": "932e5e14-faa2-45cc-95ed-8152e5aba53b",
      "last_modified": 1624479577051
    },
    {
      "Domain": "jordancu-onlinebanking.org",
      "password-rules": "minlength: 6; maxlength: 32; allowed: upper, lower, digit,[-!\"#$%&'()*+,.:;<=>?@[^_`{|}~]];",
      "id": "b5f3d474-2551-4476-a53d-14ac4db8af5e",
      "last_modified": 1624479577046
    },
    {
      "Domain": "keldoc.com",
      "password-rules": "minlength: 12; required: lower; required: upper; required: digit; required: [!@#$%^&*];",
      "id": "34394898-3ab8-4b71-9241-e204176fdb6d",
      "last_modified": 1624479577042
    },
    {
      "Domain": "key.harvard.edu",
      "password-rules": "minlength: 10; maxlength: 100; required: lower; required: upper; required: digit; allowed: [-@_#!&$`%*+()./,;~:{}|?>=<^[']];",
      "id": "fbbdfb4f-6088-4039-925a-9257af7ff7d0",
      "last_modified": 1624479577037
    },
    {
      "Domain": "klm.com",
      "password-rules": "minlength: 8; maxlength: 12;",
      "id": "c83a50cc-2fe4-43aa-9921-9e6096108d22",
      "last_modified": 1624479577033
    },
    {
      "Domain": "la-z-boy.com",
      "password-rules": "minlength: 6; maxlength: 15; required: lower, upper; required: digit;",
      "id": "d407c1b0-ce54-4590-856a-78583670c1da",
      "last_modified": 1624479577029
    },
    {
      "Domain": "ladwp.com",
      "password-rules": "minlength: 8; maxlength: 20; required: digit; allowed: lower, upper;",
      "id": "7734c07a-02dc-4b92-8be2-2526be9cb41c",
      "last_modified": 1624479577025
    },
    {
      "Domain": "leetchi.com",
      "password-rules": "minlength: 8; required: lower; required: upper; required: digit; required: [!#$%&()*+,./:;<>?@\"_];",
      "id": "462dad03-9d8d-4fda-a374-efa5c7b58e19",
      "last_modified": 1624479577020
    },
    {
      "Domain": "live.com",
      "password-rules": "minlength: 8; required: lower; required: upper; required: digit; allowed: [-@_#!&$`%*+()./,;~:{}|?>=<^'[]];",
      "id": "02398e67-5ffc-4660-8757-563039a1a0f5",
      "last_modified": 1624479577015
    },
    {
      "Domain": "lowes.com",
      "password-rules": "minlength: 8; maxlength: 12; required: lower, upper; required: digit;",
      "id": "4cec9fb5-d836-495f-834d-015e536ffd4b",
      "last_modified": 1624479577011
    },
    {
      "Domain": "lufthansa.com",
      "password-rules": "minlength: 8; maxlength: 32; required: lower; required: upper; required: digit; required: [!#$%&()*+,./:;<>?@\"_];",
      "id": "20072457-629a-4b6c-80c7-776ac743d8cf",
      "last_modified": 1624479577006
    },
    {
      "Domain": "macys.com",
      "password-rules": "minlength: 7; maxlength: 16; allowed: lower, upper, digit, [~!@#$%^&*+`(){}[:;\"'<>?]];",
      "id": "76a21c02-3326-49bc-b8ce-197bc260880f",
      "last_modified": 1624479577001
    },
    {
      "Domain": "mailbox.org",
      "password-rules": "minlength: 8; required: lower; required: upper; required: digit; allowed: [-!$\"%&/()=*+#.,;:@?{}[]];",
      "id": "84547f09-ea10-45f2-a21d-69db1874ad57",
      "last_modified": 1624479576997
    },
    {
      "Domain": "makemytrip.com",
      "password-rules": "minlength: 8; required: lower; required: upper; required: digit; required: [@$!%*#?&];",
      "id": "93cad6a1-542d-4ae2-b523-2992cbc94fbe",
      "last_modified": 1624479576993
    },
    {
      "Domain": "marriott.com",
      "password-rules": "minlength: 8; maxlength: 20; required: lower; required: upper; required: digit; allowed: [$!#&@?%=];",
      "id": "c89a90d5-7008-4747-9966-c539c1551c92",
      "last_modified": 1624479576988
    },
    {
      "Domain": "maybank2u.com.my",
      "password-rules": "minlength: 8; maxlength: 12; max-consecutive: 2; required: lower; required: upper; required: digit; required: [-~!@#$%^&*_+=`|(){}[:;\"'<>,.?];",
      "id": "ab35a850-3d7b-4328-a5bf-b9bb8b6e5436",
      "last_modified": 1624479576984
    },
    {
      "Domain": "metlife.com",
      "password-rules": "minlength: 6; maxlength: 20;",
      "id": "5798403a-3e1b-4841-995c-dc97f79d7b91",
      "last_modified": 1624479576980
    },
    {
      "Domain": "microsoft.com",
      "password-rules": "minlength: 8; required: lower; required: upper; required: digit; required: special;",
      "id": "191ca651-273d-4fbc-9301-6763bc5cc5ef",
      "last_modified": 1624479576975
    },
    {
      "Domain": "minecraft.com",
      "password-rules": "minlength: 8; required: lower, upper; required: digit; allowed: ascii-printable;",
      "id": "d6960a4c-fd47-4147-97f7-5104086a8c4a",
      "last_modified": 1624479576971
    },
    {
      "Domain": "mintmobile.com",
      "password-rules": "minlength: 8; maxlength: 20; required: lower; required: upper; required: digit; required: special; allowed: [!#$%&()*+:;=@[^_`{}~]];",
      "id": "57403978-025c-48bc-b052-48cdd4ae3390",
      "last_modified": 1624479576967
    },
    {
      "Domain": "mlb.com",
      "password-rules": "minlength: 8; maxlength: 15; required: lower; required: upper; required: digit; allowed: [!\"#$%&'()*+,./:;<=>?[\\^_`{|}~]];",
      "id": "4414af72-3ce4-4e57-a2b3-3b5df281e8bf",
      "last_modified": 1624479576963
    },
    {
      "Domain": "myaccess.dmdc.osd.mil",
      "password-rules": "minlength: 9; maxlength: 20; required: lower; required: upper; required: digit; allowed: [-@_#!&$`%*+()./,;~:{}|?>=<^'[]];",
      "id": "f59eca2e-009f-47fd-a79c-3dad75f1ceae",
      "last_modified": 1624479576958
    },
    {
      "Domain": "mygoodtogo.com",
      "password-rules": "minlength: 8; maxlength: 16; required: lower, upper, digit;",
      "id": "9a113cf9-1f58-4b31-b434-7032fc88dd89",
      "last_modified": 1624479576954
    },
    {
      "Domain": "myhealthrecord.com",
      "password-rules": "minlength: 8; maxlength: 20; allowed: lower, upper, digit, [_.!$*=];",
      "id": "2814a487-2992-4fb7-a1e8-631fed19e2d6",
      "last_modified": 1624479576950
    },
    {
      "Domain": "mysubaru.com",
      "password-rules": "minlength: 8; maxlength: 15; required: lower; required: upper; required: digit; allowed: [!#$%()*+,./:;=?@\\^`~];",
      "id": "dd12e1e4-7851-46bf-b152-86c02ac72704",
      "last_modified": 1624479576946
    },
    {
      "Domain": "naver.com",
      "password-rules": "minlength: 6; maxlength: 16;",
      "id": "269e3291-55d0-4305-9682-82db77080404",
      "last_modified": 1624479576941
    },
    {
      "Domain": "nelnet.net",
      "password-rules": "minlength: 8; maxlength: 15; required: lower; required: upper; required: digit, [!@#$&*];",
      "id": "21596529-634e-43e4-8329-82e2312c5fca",
      "last_modified": 1624479576937
    },
    {
      "Domain": "netflix.com",
      "password-rules": "minlength: 4; maxlength: 60; required: lower, upper, digit; allowed: special;",
      "id": "48f6925f-ad22-4146-bb30-7b9e078e4d75",
      "last_modified": 1624479576933
    },
    {
      "Domain": "netgear.com",
      "password-rules": "minlength: 6; maxlength: 128; allowed: lower, upper, digit, [!@#$%^&*()];",
      "id": "eb58b3dd-ffce-48c9-ba89-e11119a2536f",
      "last_modified": 1624479576929
    },
    {
      "Domain": "nowinstock.net",
      "password-rules": "minlength: 6; maxlength: 20; allowed: lower, upper, digit;",
      "id": "8c168f00-e069-400d-bd5c-778386ec39b6",
      "last_modified": 1624479576925
    },
    {
      "Domain": "ototoy.jp",
      "password-rules": "minlength: 8; allowed: upper,lower,digit,[- .=_];",
      "id": "2e2bcb45-fda9-4977-b81f-b40a7e2bc4e6",
      "last_modified": 1624479576920
    },
    {
      "Domain": "packageconciergeadmin.com",
      "password-rules": "minlength: 4; maxlength: 4; allowed: digit;",
      "id": "230c5591-2938-4e8a-a990-01569d7dd695",
      "last_modified": 1624479576916
    },
    {
      "Domain": "parkmobile.io",
      "password-rules": "minlength: 8; maxlength: 25; required: lower; required: upper; required: digit; required: [!@#$%^&];",
      "id": "cd94b742-46f0-4014-982c-04a08abdb5e4",
      "last_modified": 1624479576912
    },
    {
      "Domain": "paypal.com",
      "password-rules": "minlength: 8; maxlength: 20; max-consecutive: 3; required: lower, upper; required: digit, [!@#$%^&*()];",
      "id": "37d2f563-220a-48ad-804c-18ed9a970bef",
      "last_modified": 1624479576908
    },
    {
      "Domain": "payvgm.youraccountadvantage.com",
      "password-rules": "minlength: 8; required: lower; required: upper; required: digit; required: special;",
      "id": "d02c5cbf-cfab-4784-b4dc-a27cd07c5a7c",
      "last_modified": 1624479576903
    },
    {
      "Domain": "pilotflyingj.com",
      "password-rules": "minlength: 7; required: digit; allowed: lower, upper;",
      "id": "1bddba4d-b4d6-45e4-9264-9dc35c6ed3a5",
      "last_modified": 1624479576899
    },
    {
      "Domain": "pixnet.cc",
      "password-rules": "minlength: 4; maxlength: 16; allowed: lower, upper;",
      "id": "1c6aabd2-8788-43a6-ab6f-fc57e6b0522c",
      "last_modified": 1624479576894
    },
    {
      "Domain": "planetary.org",
      "password-rules": "minlength: 5; maxlength: 20; required: lower; required: upper; required: digit; allowed: ascii-printable;",
      "id": "84764ff8-9b16-4923-a32c-61af4c687a6b",
      "last_modified": 1624479576889
    },
    {
      "Domain": "portal.edd.ca.gov",
      "password-rules": "minlength: 8; required: lower; required: upper; required: digit; required: [!#$%&()*@^];",
      "id": "430d033c-fba6-48f8-a7ed-f6e94f5d4860",
      "last_modified": 1624479576885
    },
    {
      "Domain": "portals.emblemhealth.com",
      "password-rules": "minlength: 8; required: lower; required: upper; required: digit; required: [!#$%&'()*+,./:;<>?@\\^_`{|}~[]];",
      "id": "08af597f-ec27-4173-8780-70e994d0873e",
      "last_modified": 1624479576881
    },
    {
      "Domain": "portlandgeneral.com",
      "password-rules": "minlength: 8; maxlength: 16; required: lower; required: upper; required: digit; allowed: [!#$%&*?@];",
      "id": "bf8e5847-b010-423e-9568-e1dc77f8f208",
      "last_modified": 1624479576877
    },
    {
      "Domain": "poste.it",
      "password-rules": "minlength: 8; maxlength: 16; max-consecutive: 2; required: lower; required: upper; required: digit; required: special;",
      "id": "22ef42ad-30c2-4c8e-89ab-8bb8987dc70c",
      "last_modified": 1624479576872
    },
    {
      "Domain": "posteo.de",
      "password-rules": "minlength: 8; required: lower; required: upper; required: digit, [-~!#$%&_+=|(){}[:;\"’<>,.? ]];",
      "id": "ebbb759c-4639-4822-b071-a7d7c8e09d82",
      "last_modified": 1624479576868
    },
    {
      "Domain": "powells.com",
      "password-rules": "minlength: 8; maxlength: 16; required: lower; required: upper; required: digit; required: [\"!@#$%^&*(){}[]];",
      "id": "148061af-5fa0-4095-a449-ff17c505707e",
      "last_modified": 1624479576864
    },
    {
      "Domain": "prepaid.bankofamerica.com",
      "password-rules": "minlength: 8; maxlength: 16; required: lower; required: upper; required: digit; required: [!@#$%^&*()+~{}'\";:<>?];",
      "id": "55732a4d-5523-4a58-a148-4f669484fc23",
      "last_modified": 1624479576860
    },
    {
      "Domain": "propelfuels.com",
      "password-rules": "minlength: 6; maxlength: 16;",
      "id": "8d5e11d8-3e97-4e53-bc48-70a49749cb6d",
      "last_modified": 1624479576855
    },
    {
      "Domain": "qdosstatusreview.com",
      "password-rules": "minlength: 8; required: lower; required: upper; required: digit; required: [!#$%&@^];",
      "id": "79d84875-e285-4449-b664-ac2548047773",
      "last_modified": 1624479576851
    },
    {
      "Domain": "rejsekort.dk",
      "password-rules": "minlength: 7; maxlength: 15; required: lower; required: upper; required: digit;",
      "id": "03ad72e8-7e6d-4865-9001-03c8d441b554",
      "last_modified": 1624479576847
    },
    {
      "Domain": "ring.com",
      "password-rules": "minlength: 8; required: lower; required: upper; required: digit; required: [!@#$%^&*<>?];",
      "id": "e4d9b593-f745-4305-a4d1-7c87d6491eab",
      "last_modified": 1624479576843
    },
    {
      "Domain": "riteaid.com",
      "password-rules": "minlength: 8; maxlength: 15; required: lower; required: upper; required: digit;",
      "id": "f007d5e4-d650-446e-b6d7-5c1127952431",
      "last_modified": 1624479576838
    },
    {
      "Domain": "robinhood.com",
      "password-rules": "minlength: 10;",
      "id": "4a70469b-2f6a-4068-be6f-7bb56da4c7ac",
      "last_modified": 1624479576834
    },
    {
      "Domain": "ruten.com.tw",
      "password-rules": "minlength: 6; maxlength: 15; required: lower, upper;",
      "id": "a1c77d00-397b-4a17-ac98-d4e4d5045c63",
      "last_modified": 1624479576830
    },
    {
      "Domain": "santahelenasaude.com.br",
      "password-rules": "minlength: 8; maxlength: 15; required: lower; required: upper; required: digit; required: [-!@#$%&*_+=<>];",
      "id": "9047ed4e-8526-4287-8318-dbf92675761a",
      "last_modified": 1624479576826
    },
    {
      "Domain": "santander.de",
      "password-rules": "minlength: 8; maxlength: 12; required: lower, upper; required: digit; allowed: [-!#$%&'()*,.:;=?^{}];",
      "id": "a87ca10c-9ad6-40fb-994f-8abcc680d3f6",
      "last_modified": 1624479576821
    },
    {
      "Domain": "sbisec.co.jp",
      "password-rules": "minlength: 10; maxlength: 20; allowed: upper,lower,digit;",
      "id": "77e3137c-3808-4338-89a1-b695435b9bb8",
      "last_modified": 1624479576817
    },
    {
      "Domain": "secure-arborfcu.org",
      "password-rules": "minlength: 8; maxlength: 15; required: lower; required: upper; required: digit; required: [!#$%&'()+,.:?@[_`~]];",
      "id": "4a2aa792-ac47-4c69-9309-350e6d619088",
      "last_modified": 1624479576813
    },
    {
      "Domain": "secure.orclinic.com",
      "password-rules": "minlength: 6; maxlength: 15; required: lower; required: digit; allowed: ascii-printable;",
      "id": "261b0370-c9c8-45eb-9746-9e064c9b6e25",
      "last_modified": 1624479576809
    },
    {
      "Domain": "secure.wa.aaa.com",
      "password-rules": "minlength: 8; maxlength: 16; required: lower; required: upper; required: digit; allowed: ascii-printable;",
      "id": "647eb93a-fbf7-4d5b-8a5e-76fe582dc9da",
      "last_modified": 1624479576805
    },
    {
      "Domain": "sephora.com",
      "password-rules": "minlength: 6; maxlength: 12;",
      "id": "d1a87641-5970-4e96-811b-5a20f192c69d",
      "last_modified": 1624479576801
    },
    {
      "Domain": "serviziconsolari.esteri.it",
      "password-rules": "minlength: 8; maxlength: 16; required: lower; required: upper; required: digit; required: special;",
      "id": "4cf4cb84-9413-42d3-929c-439569a5a4fd",
      "last_modified": 1624479576796
    },
    {
      "Domain": "servizioelettriconazionale.it",
      "password-rules": "minlength: 8; maxlength: 20; required: lower; required: upper; required: digit; required: [!#$%&*?@^_~];",
      "id": "fa5fdcb6-0fd9-432e-861a-5c327f639654",
      "last_modified": 1624479576792
    },
    {
      "Domain": "sfwater.org",
      "password-rules": "minlength: 10; maxlength: 30; required: digit; allowed: lower, upper, [!@#$%*()_+^}{:;?.];",
      "id": "c65363de-aead-40d9-8fb8-14a8b46031af",
      "last_modified": 1624479576788
    },
    {
      "Domain": "signin.ea.com",
      "password-rules": "minlength: 8; maxlength: 64; required: lower, upper; required: digit; allowed: [-!@#^&*=+;:];",
      "id": "13e6ab13-6e7d-4d0a-85a3-f55464185cf3",
      "last_modified": 1624479576784
    },
    {
      "Domain": "southwest.com",
      "password-rules": "minlength: 8; maxlength: 16; required: upper; required: digit; allowed: lower, [!@#$%^*(),.;:/\\];",
      "id": "0c6010fc-395c-459a-b61e-422500be8777",
      "last_modified": 1624479576780
    },
    {
      "Domain": "speedway.com",
      "password-rules": "minlength: 4; maxlength: 8; required: digit;",
      "id": "446131d5-8fbb-4f77-b02c-f0858f706df1",
      "last_modified": 1624479576776
    },
    {
      "Domain": "spirit.com",
      "password-rules": "minlength: 8; maxlength: 16; required: lower; required: upper; required: digit; required: [!@#$%^&*()];",
      "id": "0e6bbcf6-5ec6-4417-9f8f-4b586ed4f9d3",
      "last_modified": 1624479576772
    },
    {
      "Domain": "splunk.com",
      "password-rules": "minlength: 8; maxlength: 64; required: lower; required: upper; required: digit; required: [-!@#$%&*_+=<>];",
      "id": "984b1541-aac5-40c5-a51b-7a598a4a050b",
      "last_modified": 1624479576768
    },
    {
      "Domain": "ssa.gov",
      "password-rules": "required: lower; required: upper; required: digit; required: [~!@#$%^&*];",
      "id": "2977a003-71e5-4fb7-8d97-0aa1135edee5",
      "last_modified": 1624479576764
    },
    {
      "Domain": "store.nvidia.com",
      "password-rules": "minlength: 8; maxlength: 32; required: lower; required: upper; required: digit; required: [-!@#$%^*~:;&><[{}|_+=?]];",
      "id": "48c45270-f890-4c0e-a6d7-69d5372d1953",
      "last_modified": 1624479576759
    },
    {
      "Domain": "store.steampowered.com",
      "password-rules": "minlength: 6; required: lower; required: upper; required: digit; allowed: [~!@#$%^&*];",
      "id": "1af53dc1-2c9e-4308-9323-931ec2a6ec47",
      "last_modified": 1624479576755
    },
    {
      "Domain": "successfactors.eu",
      "password-rules": "minlength: 8; maxlength: 18; required: lower; required: upper; required: digit,[-!\"#$%&'()*+,.:;<=>?@[^_`{|}~]];",
      "id": "b60f5e67-9aee-49e4-b0fd-10f7c158d3e4",
      "last_modified": 1624479576751
    },
    {
      "Domain": "sulamericaseguros.com.br",
      "password-rules": "minlength: 6; maxlength: 6;",
      "id": "2d508bf3-34d3-490f-943b-15b2a4620454",
      "last_modified": 1624479576747
    },
    {
      "Domain": "sunlife.com",
      "password-rules": "minlength: 8; maxlength: 10; required: digit; required: lower, upper;",
      "id": "002a1e5d-4cf6-4954-85a9-5d0e7c0dcafd",
      "last_modified": 1624479576742
    },
    {
      "Domain": "t-mobile.net",
      "password-rules": "minlength: 8; maxlength: 16;",
      "id": "c9f6b726-72e2-46a5-8efb-f935fbd1593a",
      "last_modified": 1624479576738
    },
    {
      "Domain": "target.com",
      "password-rules": "minlength: 8; maxlength: 20; required: lower, upper; required: digit, [-!\"#$%&'()*+,./:;=?@[\\^_`{|}~];",
      "id": "db64457e-2772-4205-93d8-cf8aa868fe48",
      "last_modified": 1624479576734
    },
    {
      "Domain": "telekom-dienste.de",
      "password-rules": "minlength: 8; maxlength: 16; required: lower; required: upper; required: digit; required: [#$%&()*+,./<=>?@_{|}~];",
      "id": "ecbf1f12-2ad2-4b2a-8dfb-7eeab174cf37",
      "last_modified": 1624479576729
    },
    {
      "Domain": "thameswater.co.uk",
      "password-rules": "minlength: 8; maxlength: 16; required: lower; required: upper; required: digit; required: special;",
      "id": "1762cf2d-678f-429b-a269-d2bab5995305",
      "last_modified": 1624479576725
    },
    {
      "Domain": "twitter.com",
      "password-rules": "minlength: 8;",
      "id": "0bcba576-c599-4b54-bc15-299e23901adc",
      "last_modified": 1624479576721
    },
    {
      "Domain": "ubisoft.com",
      "password-rules": "minlength: 8; maxlength: 16; required: lower; required: upper; required: digit; required: [-]; required: [!@#$%^&*()+];",
      "id": "f90b4a6e-5017-4395-9428-f40fedde66a2",
      "last_modified": 1624479576716
    },
    {
      "Domain": "udel.edu",
      "password-rules": "minlength: 12; maxlength: 30; required: lower; required: upper; required: digit; required: [!@#$%^&*()+];",
      "id": "5d225840-dc7c-491e-8bff-32c6bd5b0197",
      "last_modified": 1624479576712
    },
    {
      "Domain": "user.ornl.gov",
      "password-rules": "minlength: 8; maxlength: 30; max-consecutive: 3; required: lower, upper; required: digit; allowed: [!#$%./_];",
      "id": "a255ca92-b588-4d51-8484-a08e3de891ae",
      "last_modified": 1624479576708
    },
    {
      "Domain": "vanguard.com",
      "password-rules": "minlength: 6; maxlength: 20; required: lower; required: upper; required: digit; required: digit;",
      "id": "0268a50e-7ea1-4e0e-94ca-48836ff1a505",
      "last_modified": 1624479576704
    },
    {
      "Domain": "vanguardinvestor.co.uk",
      "password-rules": "minlength: 8; maxlength: 50; required: lower; required: upper; required: digit; required: digit;",
      "id": "2e683b88-6b4e-4b98-a073-4f853bb53165",
      "last_modified": 1624479576700
    },
    {
      "Domain": "ventrachicago.com",
      "password-rules": "minlength: 8; required: lower; required: upper; required: digit, [!@#$%^];",
      "id": "df652b2a-2306-4f52-b369-7c19915c5360",
      "last_modified": 1624479576695
    },
    {
      "Domain": "verizonwireless.com",
      "password-rules": "minlength: 8; maxlength: 20; required: lower, upper; required: digit; allowed: unicode;",
      "id": "9cbff1d3-244d-4f7f-a848-f7ebe4caf93f",
      "last_modified": 1624479576691
    },
    {
      "Domain": "vetsfirstchoice.com",
      "password-rules": "minlength: 8; required: lower; required: upper; required: digit; allowed: [?!@$%^+=&];",
      "id": "615d4909-f0b1-4cc9-9878-d4abf52a7129",
      "last_modified": 1624479576687
    },
    {
      "Domain": "virginmobile.ca",
      "password-rules": "minlength: 8; required: lower; required: upper; required: digit; required: [!#$@];",
      "id": "f7e1bff7-fd15-4c1b-8670-94c2d0a7a932",
      "last_modified": 1624479576683
    },
    {
      "Domain": "visa.com",
      "password-rules": "minlength: 6; maxlength: 32;",
      "id": "36c1bb07-c5e4-40ad-a61d-5a6161429373",
      "last_modified": 1624479576679
    },
    {
      "Domain": "vivo.com.br",
      "password-rules": "maxlength: 6; max-consecutive: 3; allowed: digit;",
      "id": "c224e115-06c4-4b4c-a254-782c496be427",
      "last_modified": 1624479576675
    },
    {
      "Domain": "walkhighlands.co.uk",
      "password-rules": "minlength: 9; maxlength: 15; required: lower; required: upper; required: digit; allowed: special;",
      "id": "5d69d056-af55-465e-bac3-5a7e3fda5057",
      "last_modified": 1624479576671
    },
    {
      "Domain": "walmart.com",
      "password-rules": "allowed: lower, upper, digit, [-(~!@#$%^&*_+=`|(){}[:;\"'<>,.?]];",
      "id": "83c9b1e5-6ec3-409a-a28a-3c87ef48bc97",
      "last_modified": 1624479576667
    },
    {
      "Domain": "waze.com",
      "password-rules": "minlength: 8; maxlength: 64; required: lower, upper, digit;",
      "id": "af1084bb-b652-45de-9dae-4ff49b528222",
      "last_modified": 1624479576663
    },
    {
      "Domain": "wccls.org",
      "password-rules": "minlength: 4; maxlength: 16; allowed: lower, upper, digit;",
      "id": "8fbcf918-1625-42a9-a683-a7070cfa4ad0",
      "last_modified": 1624479576659
    },
    {
      "Domain": "web.de",
      "password-rules": "minlength: 8; maxlength: 40; allowed: lower, upper, digit, [-<=>~!|()@#{}$%,.?^'&*_+`:;\"[]];",
      "id": "d5591a2b-46cb-4c6d-885b-2136a34bdc8c",
      "last_modified": 1624479576655
    },
    {
      "Domain": "weibo.com",
      "password-rules": "minlength: 6; maxlength: 16;",
      "id": "4b4d23f9-a062-4066-930a-139b43af1a4c",
      "last_modified": 1624479576651
    },
    {
      "Domain": "wsj.com",
      "password-rules": "minlength: 5; maxlength: 15; required: digit; allowed: lower, upper, [-~!@#$^*_=`|(){}[:;\"'<>,.?]];",
      "id": "a722dd4f-c158-4f57-bdf1-dcf9b76b7ed0",
      "last_modified": 1624479576646
    },
    {
      "Domain": "xfinity.com",
      "password-rules": "minlength: 8; maxlength: 16; required: lower, upper; required: digit;",
      "id": "e2e55ee1-a051-4848-bdf8-30b660e6facf",
      "last_modified": 1624479576642
    },
    {
      "Domain": "yatra.com",
      "password-rules": "minlength: 8; required: lower; required: upper; required: digit; required: [!#$%&'()+,.:?@[_`~]];",
      "id": "7e1b7e51-9976-4155-8597-d8efc3f4dd77",
      "last_modified": 1624479576638
    },
    {
      "Domain": "zdf.de",
      "password-rules": "minlength: 8; required: upper; required: digit; allowed: lower, special;",
      "id": "f98498db-c932-4ce7-8175-59f4f4bb873a",
      "last_modified": 1624479576634
    },
    {
      "Domain": "zoom.us",
      "password-rules": "minlength: 8; maxlength: 32; max-consecutive: 6; required: lower; required: upper; required: digit;",
      "id": "5fe248fb-3e63-4300-8f67-3e6006af0e87",
      "last_modified": 1624479576629
    }
  ],
  "timestamp": 1652712410939
}
